0000ae5dd557aefe5d00feab57d5ae00
0000ae5dd557aefe5d00feab57d5ae00
0000ae5dd557aefe5d00feab57d5ae00
0000ae5dd557aefe5d00feab57d5ae00
0000ae5dd557aefe5d00feab57d5ae00
0000ae5dd557aefe5d00feab57d5ae00
0000ae5dd557aefe5d00feab57d5ae00
0000ae5dd557aefe5d00feab57d5ae00
0000ae5dd557aefe5d00feab57d5ae00
0000ae5dd557aefe5d00feab57d5ae00
0000ae5dd557aefe5d00feab57d5ae00
0000ae5dd557aefe5d00feab57d5ae00
0000ae5dd557aefe5d00feab57d5ae00
0000ae5dd557aefe5d00feab57d5ae00
0000ae5dd557aefe5d00feab57d5ae00
0000ae5dd557aefe5d00feab57d5ae00
0000ae5dd557aefe5d00feab57d5ae00
0000ae5dd557aefe5d00feab57d5ae00
0000ae5dd557aefe5d00feab57d5ae00
0000ae5dd557aefe5d00feab57d5ae00
0000ae5dd557aefe5d00feab57d5ae00
0000ae5dd557aefe5d00feab57d5ae00
0000ae5dd557aefe5d00feab57d5ae00
0000ae5dd557aefe5d00feab57d5ae00
0000ae5dd557aefe5d00feab57d5ae00
0000ae5dd557aefe5d00feab57d5ae00
0000ae5dd557aefe5d00feab57d5ae00
0000ae5dd557aefe5d00feab57d5ae00
0000ae5dd557aefe5d00feab57d5ae00
0000ae5dd557aefe5d00feab57d5ae00
0000ae5dd557aefe5d00feab57d5ae00
0000ae5dd557aefe5d00feab57d5ae00
0000ae5dd557aefe5d00feab57d5ae00
0000ae5dd557aefe5d00feab57d5ae00
0000ae5dd557aefe5d00feab57d5ae00
0000ae5dd557aefe5d00feab57d5ae00
0000ae5dd557aefe5d00feab57d5ae00
0000ae5dd557aefe5d00feab57d5ae00
0000ae5dd557aefe5d00feab57d5ae00
0000ae5dd557aefe5d00feab57d5ae00
0000ae5dd557aefe5d00feab57d5ae00
0000ae5dd557aefe5d00feab57d5ae00
0000ae5dd557aefe5d00feab57d5ae00
0000ae5dd557aefe5d00feab57d5ae00
0000ae5dd557aefe5d00feab57d5ae00
0000ae5dd557aefe5d00feab57d5ae00
0000ae5dd557aefe5d00feab57d5ae00
0000ae5dd557aefe5d00feab57d5ae00
0000ae5dd557aefe5d00feab57d5ae00
0000ae5dd557aefe5d00feab57d5ae00
0000ae5dd557aefe5d00feab57d5ae00
0000ae5dd557aefe5d00feab57d5ae00
0000ae5dd557aefe5d00feab57d5ae00
0000ae5dd557aefe5d00feab57d5ae00
0000ae5dd557aefe5d00feab57d5ae00
0000ae5dd557aefe5d00feab57d5ae00
0000ae5dd557aefe5d00feab57d5ae00
0000ae5dd557aefe5d00feab57d5ae00
0000ae5dd557aefe5d00feab57d5ae00
0000ae5dd557aefe5d00feab57d5ae00
0000ae5dd557aefe5d00feab57d5ae00
0000ae5dd557aefe5d00feab57d5ae00
0000ae5dd557aefe5d00feab57d5ae00
0000ae5dd557aefe5d00feab57d5ae00
0000ae5dd557aefe5d00feab57d5ae00
0000ae5dd557aefe5d00feab57d5ae00
0000ae5dd557aefe5d00feab57d5ae00
0000ae5dd557aefe5d00feab57d5ae00
0000ae5dd557aefe5d00feab57d5ae00
0000ae5dd557aefe5d00feab57d5ae00
0000ae5dd557aefe5d00feab57d5ae00
0000ae5dd557aefe5d00feab57d5ae00
0000ae5dd557aefe5d00feab57d5ae00
0000ae5dd557aefe5d00feab57d5ae00
0000ae5dd557aefe5d00feab57d5ae00
0000ae5dd557aefe5d00feab57d5ae00
0000ae5dd557aefe5d00feab57d5ae00
0000ae5dd557aefe5d00feab57d5ae00
0000ae5dd557aefe5d00feab57d5ae00
0000ae5dd557aefe5d00feab57d5ae00
0000ae5dd557aefe5d00feab57d5ae00
0000ae5dd557aefe5d00feab57d5ae00
0000ae5dd557aefe5d00feab57d5ae00
0000ae5dd557aefe5d00feab57d5ae00
0000ae5dd557aefe5d00feab57d5ae00
0000ae5dd557aefe5d00feab57d5ae00
0000ae5dd557aefe5d00feab57d5ae00
0000ae5dd557aefe5d00feab57d5ae00
0000ae5dd557aefe5d00feab57d5ae00
0000ae5dd557aefe5d00feab57d5ae00
0000ae5dd557aefe5d00feab57d5ae00
0000ae5dd557aefe5d00feab57d5ae00
0000ae5dd557aefe5d00feab57d5ae00
0000ae5dd557aefe5d00feab57d5ae00
0000ae5dd557aefe5d00feab57d5ae00
0000ae5dd557aefe5d00feab57d5ae00
0000ae5dd557aefe5d00feab57d5ae00
0000ae5dd557aefe5d00feab57d5ae00
0000ae5dd557aefe5d00feab57d5ae00
0000ae5dd557aefe5d00feab57d5ae00
