2aae984a31993ccf42262285930d7a98
d2e30a4e1001639d4e1aa5536c6b5797
361a9b4e89d65b594e1642f196b7e8b8
a5b924e563f16f45f829100cf1637f54
54ebb30a61c2b59def27e738de2198c8
db9ee69742b7e4a3a0a10e822972501e
cc844af64fae72c927d9f532c5934e8e
e28ade6d08e666bcc0087805a7999145
d0158d2e8f1f2144703195c2adbc0971
b1366ea55b53c502d9aeb36969952bfa
cda55b5d04e83496436f6f48760ae1a8
cd5ad488e187afdf3a6bc39c632c721e
22a79593420822271fd3bdc6b2a14655
4a31c2b70c67d07b1a262cf5aae609f9
e6158d96f801ab4240edec83f411463d
8df9a77f4b072cf13d68b25c0ef353ed
c26b81e03330ced91540f26a49613495
072ab89c5885b79e945ee5a1d3f4d72b
c48650a9e461523ce58f6411b0b16a87
213e6c66fada490b752be21ddc586034
f8fbf32c8a2613cf4a4428c9b087a634
25491abb22f6d672f52699c6e1a64c13
38f153f660ceace407968cf9c98e2548
b2a3dac5446f98a8f0cf2b78ada52c98
59a7ceb965ec79307538d6770337f2b8
6789985e341648b57a6795bb0d48d4c5
798bc14282d9daa0211500a7fc978136
ea439830efce77eaaa61eeb8b0b80201
f5dd29bce1d2a753a574e2242bdee119
a1d0a21877696d82eb15846a2af79465
fd80d5bf3a1e93bafa5413fbd6cc769a
1cc8d1313e27ce5c389bf5bd587ba4b6
7800cb9814684c7ec56565072bc8050e
d7be99ac1a5ddf885ff353de5ac55eb9
bd97254968ad27fcc30dc31461b95726
f4ad8e25ad58e892d1ea696da2393010
f62ecfb99e91bb9a634fbf57f02ad421
8643f697308a97f06cdf8719cf94c814
b36fa75c803166169435f5acaf5fce27
4f35d21fcc667530e8c03817d4a34a01
559f16ecafd51daec7aadf5b904c1371
e9e93db24b65c6b5ba79da895fdcf492
81a41540116a7f7644848cde721c2e7b
3919acf05c1a47539cd7e83533c59d78
6ce7a6a1c8a6bf0ed0519d890ebdeffe
24c45c5a56d9732d44859af6bd0f06eb
5a97873e1ecb032c7efca4944879fc91
01de587781bab77e3e7d36e8960d5d63
9f413171fd2d8089d6eb244b81a57b02
0e62f0d72c8648f654f5b4128c42d67e
be436ec5dd84b7cc9719700e28a990e1
bdf6f7d267cd189d3e651cb5f6d55eed
230a716601d5a552218241835c44256c
5ce70a8ba0d13be0bd7facd7922b7e36
3f17ee61df7575a8a6f481c096bbf0ce
279f58bf8842df72769431635b9eb60c
24b00785bce518ddf9daf6bca01a6ceb
97339613f4aa75715226c05b1610899e
ee792a0ff65372fe65b343dc9360293c
2975c870f62db966af504463f8c00278
8c9da07f991ab45b8327acd53390ec45
b2f6973a68bc851f90fa46ac9fc5107e
f58a00a56d6f064f01fba41ea8c17d3f
51826da7fd00ca7c67f6925363ccc8d5
ef627adc0c6dfb232488cf1c2dad71a6
80dc8b6452341e8229055640dae189f6
805ae4126b549ed5a8566ed903e138c8
e06d27120e3bf97cc90fe5a69f8ab5e1
7616ffed94245e6c5ea13ece1f4621fb
337578639242c04eb513c1d905fabcd9
2c66c40999ed7be53d85da0c8e039683
f3f831dd1e8ed5b11f5a7bf2342eee37
c37bef18e035486de1a4f928d557bd5a
c0a673345f0abbc7b30bffb87d267756
c27b3e11aad5301bf2a69ad9d4f00f6e
b66d89ae465f2c0dfde0c36ed99951b9
3050f058d35a55cd5d91d790e4a159bc
e86c969b05a6d37bd8aa9c2a323ec6e7
8a1ea0bc6605a9a0570365df62474d28
2b2d0aa5d3a41ad47761ea8386c0cfbc
c4c02059f0ced9d2f61fc6abda99c4ed
ae9b207a34655f2373ad7e0154e87013
49144ed79995b20d662804874c09295a
e8c38dfc59c9b89c969c3baf613a3807
ea339edb88608df1176e7b808548fca9
f865f3ca72bc89357ca5bb990c2db9a5
eeb879bc6edfd59498982af51a6cbe6f
b2d593aa530ad2e67d649044ad5c6785
b8928473af620116cd296da086bdd567
2ed12785ddb642a99ad1efdacfe8ef29
d2d77102263dc1d20031080993e94166
50dc8cf8b25d952a423c73a908b84f0d
67f1bef57e28fae211873b5d0003e94a
4e48a473e7e236eab50329930a8def96
de2c21f952747b5b9f1c9f11283012fe
2c7b7ba3c6a052b692567c8877a5aa44
65817c35d97076fe905e9c47ba72b2bf
581fc07ac1a66b93928f1ca3c6ec596a
7ce84592d7373748234e414fb99df48b
fa009e6b8fb01de5ff9ec53dc40ba723
abf58666530f7e2164bf974c5e162c92
ffe4a1fe057719ac5637970c4662024f
e8941d7d0ebb44f86f6f4cc3430632d6
cdbccadb790d0bd659ec6c1c8d3a5f3e
3538af6f100990f8a30dc0046e78aa75
54749f24bed7dbded7166200976da865
9b645524104e279ac28c2179c79be041
b48eb318bab7b9573b0d31e08be73f17
222d5ac8c61534132a446bee9c52a194
92f51e08df187a1c29ce47dd94a329ae
1317b0078085df88003f4ac5e7257157
227b61b3f7c4ced077a2f37c19810536
5366b12ca736c57cbaa295f11db85883
ff669d75bc9d49f0193542aba60c0e45
1a5d188a429927a468fb3c6c1d21fde3
1f62002d68d6691bbb0b8053e325cd89
4110d310692406d34c98819faa4213e6
069e8c8e0c1950599538fe17d8aa2ca2
94fb0bb1450bcfb5b59e1732fe3a0f31
817afb0e5997095150e0fff2e6fb8a3d
8e54fa888d119e6bac726b962560ba64
9715adb14333c71241b35d4b71a4fe43
f210bc060d0d50193284199ccb405870
b1d58eed847e5b1c53e52855e2d7210c
2c1dc16ea81e6d5b076c15821e1fbc49
7b59170dbd1abf0967556d50e409b4b2
0155ca77079b3d8387ad092056a6f69c
05e1fb642b6e97b14ba66a17f4cef586
10dddc5489461b8abf7c79185dc8b1e3
454510bfc7059b5f8252a5be368dc028
7f1b2c532445ece67a711363d9358ebe
63be81dd22d2a6956cd9ed54855e169e
beb85426b94525b62abe8a9ffd7e2277
a6965771c534967e3c826de08cbe7393
9fb98c148baafba0f7119089195bb6a3
f8975ea3b401f0f736999d8895f0bf0c
e97440fe8506478ff275162a29d82624
fae8e82732fee9b3f9d6ce191bdf1ba2
075002b6376677466f315a74cd41ea09
37f32afaaa0d84161e84aa456be436d5
b3e3c5e632959094261096a3c0e49bac
9c60de2d66f6b88c0307785be476fa4c
bcd0c6e52959b563a9ef18e768cbe889
2cfe23d41a30a8a68ca8a4fff061ef30
182f52eaedd94e87d98230b2a3955615
92e9f6b8cba62fb879e40188cd0c4ad5
1cdf491684d624d4510188a327b9b7b2
ad4e79b7b25910e7b11709d5a241cfde
c0462e7e95f8dfc43dea2c379c36baa8
08c14bfac168083646fa3d215117977a
79dc66c7b82033d809e4532805acf4ad
30dd7293fdf4c35e5db6d35ba7e0b1e2
f98efa2a5caed24d31344272dc2e9b2a
23e537867f67d38167e01d30d8fbb1f9
f8d591f808246f27575b09e21c2481ad
669853996faf178503484f842733b95a
44072bc9c3facf244668032c2a6a6f9a
e351c1e9c9d2456c906ed75166958191
f560e31e8c4a9cf51169ba3493853719
688f198b2a3a7f6fbb47cf824f9b6280
47ba0bf77eb6ea9d5ab96c4c1695f20a
2c80929681e98dfac8950160fb147338
021d50472800ec0f671bc08c9513f42f
332ef3a603c8d866407d8082d7fa411b
01e120fa4741eec13445ba596f8a8e73
5697c59afdd87bca848be9858a05c658
bb576fdb90636d72b8043d157c3ddea4
82770be04f39d2cf566207aaa90635da
1eac4b99c039d920cec6e73758bbd4d6
47d219428732781dff6621bf9fa333db
61faf1945fddf0b87f6ca3ec27168b68
5708a96f908d72ce85c255e351804f4a
5b823385b3daaa8ec0c8eb30fd93549a
1ef9753f622ea10ebcc85163238195a3
baa13875a8ff175b5f6d16aafdd70872
fa4db2cabfcc8a540e1bc31beef51820
ae3a346e7037af154bc39b7e2639f539
02e02c4f99884582c99065657a40cc40
d5589b1812578f38df340f52fb0a608e
16efb53c4dd3197cf892bf2637139fce
66465d8052015e38c7b71cf49e471a21
497b887fc64db06e52e9dd2f9b8c953a
1c2ed7b5f35220c940f6924a3c4bb845
099004c8fccad3185221a172efc7b4b6
476394877e968414d068bfefdd299457
43757fa781340514fabbaecd07fb170b
4f62bc60bfb49359e222d5b457c91e14
02a956295fe30aa6bc2122fda12ea217
787131d575d6dd750a9114fc82c2004c
ce6b65a989f44972ae32af15fb676ddf
a2dca0d30044d748ed3e8d1052c8b4fe
9110898e3318c89cad582c5decb98c1b
1e1c444e6614689824df2f380f514a12
ace4e526b13423bf7c8e4662fb5bd1be
04121857c99c43ab19b39803402bb8a4
ced11f2c31940b12dca0e1854dcfda82
1539abca42b94c8b08c98c6519851dee
ea884f7bea2f224e5a70375c3133558f
3ae7139aff27e63862d974ef14b34efc
3651b108dc57c7836c971641e16d5095
8ce1a5b6aafb8f089fc31245751521de
510e09cbb02c96f324331205b483e343
d69c4002e919fdd546a91cd9a2ee8783
5435603ef9814dfdc13d93db7a81755f
b3c74799c674c39683cb6a0dea143efd
ab394615721a513e3994f384f5f2bc13
84cf6319cbc113c40db9711bc66eea68
14ae8bcfb0a3b9fd090e288d83b1204b
6ef9729d9dfc4890505af19e11a0a166
30b73e7ba3d73340d02e191eb386f183
5710b64911b7d7eab6229dfbd610f3a6
0fd51879619a07200dca6297e42c9d60
0cc0a709b37f78a4fe66efa60d78fffe
8c83e8972f025382de53ef5b7db11099
0d10faa042c453bc8854e21ba3f25380
9edc14ba49a57a9cecd1ee19622411e3
12d28dc71ba54dd619c196f7429bda30
8378412078afd6c59c6596472d845f3b
33f17ffe2bf8c567b427a326055e5994
f955e97b3d7c924b120684247c2ff9f8
67edfa28b41a4b3861c8ddbb33bb9bf5
4ac8a074cb350cf6c6600f08455c4219
5918c826afa354f6b7f6052f340f47f7
de273787fa4655466277be35d2d47c74
008f32629f2ac8e7ac21eeee01fdf303
55e9da30c9d91fa1fc16c882ba71c79d
cdfe2b36581831524a03ee76f5b1230f
a7ee1a5da318758c5ced420b365205ec
072788c07c9096e518c0250304254c96
a786da4635a678a1c45ea84025d09f73
ea31ca74a98ae04c08b92f7c1896c081
0881911d0761c463232b2e3800f554a0
2b66c3042e6bc59d0f1a4e370376b705
1855f7f24be975b4f25e306c31d16fbd
8e50a4e1bc1f7c6525b682f3521753d6
ebd414ca6b131b2cd36e2e6dad7c59ad
e59cf216aab8b4043aec620efc361fec
14d7a958acc7638dd1c38bcdfc3b90fc
922d912d57b6134fc71ad163709ba56a
9bfb120b0296587fdf968a22da8a46c9
17c7d4333d80882d800dea27f801ebf6
d8836ca09e983a604d55560f9ab977f8
1cc876050ecfeaa90d1179c8c38d2565
3b67a5aaf1ef844d9ffe65f504ce7b70
d0a522ba85128919fcbc90d289614888
a06199a476315bf2d28baa303f3f93b3
3a8880123d368e8a5e0ca680e0b843e2
83353ddec0acc0e6a8531c12ed907305
a1684f76246855d0db768dd69d8956db
2532a831067874f51414c78e78d9496c
a18b14f2c8e74eb4692d861122aa64cc
05d1ad5dc83d9720d47b299488ffa12e
b90ac71ae00dbbbf2fb112d1d0c9d260
80c600507d847a8d97f6524da3fd200b
b06a51c88561597956aec9752bbfd516
3e521de94ee0631b3af9f57095a5fd37
75ececd2b344105a52c1bfe5c09ce6ad
c2e5b49dd0f9e50666b6c5a42e6212bc
f9753e99d2a3ca9684feeb977d132af2
86b88c4039242225ee90c7907a18aaff
d126937450467ec29c7987a359e91347
784eedb9f8279d4336d8bf0ba3a33917
adab7cece647c2459c17156959852ebd
9dea052d6d1051b7fe4f2f958c1689f8
76d35dcff44127c7e1e82cefdef8fd76
670c31f33e0721243b555e4d75c61541
bbbcbbd3382a3486d0421f095b6ce2de
6f891f08ec816ef9d93f3cc59d564084
765cc04b64f21b2a53f159aeee006056
17fcb398b334e4f62fe9cfa07f369640
adb15ce72228fa3bfd6a5fe2ee2b5374
ef2b36d3ccf7d5c88e87d9d8a124eda4
bac0ebe1718596bb844db3af8d77a884
d2f92afb3a880cda5c9d0d4410e6d385
5587e846f9c1b561b384794b92243308
bb20b2eed88492e87a2b5566e2e393db
9f75a73e23d444f2331e94c519e973c9
3c747ef9286698e78d210ce058468699
d885c55c94a16fa584183dcbba008753
53db1d9d8c3edb1f019c9fed3b9024b4
4fd7c48cb851d32d7e556deab90211c1
7e1b24b1bc668b1337c4aae899cbd4af
d28ffb9d35735e169a10c723a781488a
80ceb5548e70a64fc901858257018ce1
256dbba5c03036006cfcd51a1dd2b0e0
cd09ecff1cab2cfab03f859eed894bfd
6c3fcf3cda40aad4935421a963c56cb1
465e0d65098786c01745bcd9e959853d
72c3f83b95f0a823fb5df796908ba733
17e59a7ad17541688c3ca2aed7097ee7
7390b3f30968ff56fcfc665a8b16fdc1
e669fafab41b0fd9e28c1c1ec7daec19
84f53dddb2d7e95f2dab7e848659b35a
73abcef8b1f4399a904893d5aa41c245
6a0d48108942991ba59dc31604c3075b
f8a3c676906b8b52a395145ab182b1dd
bb0720d4c99dfc78a8e882acf74665b2
e04d34c9c0de4503f8dd034896933776
34422ecb0fba26226fc35d5370b3a5d5
c1afacd89dcc1cba7fe2af4910d7814a
d2339537f8aa4d6f3e3643edc699da01
82c870b0f0ab2f2e2cc56b8129425ef9
71333acab5eabfec0f581bd3d2455508
9ef4baa74383dffe01213d2c7b439e37
831e06055ca2b6c5b2c4052aaf58dadc
0bb7d1d944f989b7aab18b3da21585e7
a58950d7a3bd1661399b6125e2ea1758
39fda088d1282f4c7864024df15557ed
2bcf7924dafa13df432e48d26b313d71
8c7df781da33bee683bb91d8f352687a
a767291876643f20f85ecb6b591c1ff2
9d3ef38018718e7f9887923cbc7f1e15
baf0e0330f4bb0788b877032cd718d51
b136ee59e090f994d22f508c26700803
cee4aaea9cb3a3fbc9e486e831956435
39cc8841b9f6842c939b052adb2285b2
967d8644024c682f3ae4795a854a4c1a
1a352d13cd72a014da792c47623f285c
4f0739957c8ec2b8aecbcd994f290a5e
ff13585dcfb70734bd5aa0988910bc5f
e653562f478a226bb7b5785b1939a8c2
322a45fcf843847bc3ca819207b57e16
ca1c40c5cea5ae7a76bbdc2af6ff474e
9a20e8d649eeacf9a1fd5c355fa404df
358fecf21c8fea8ab82f3f68ad824873
e584c3dfe765504448854036e44b5036
33acfe62151d065da2ef4b1fd8600d5e
2ac9d2d359de41bd7ddd363857272099
d961efcbdc86aad3f92a188936fb3e69
75229dd4ad77dec5e0de38b501f337fe
45385f417dcc63470f5d67920867b7c2
2775405995dfec146df1370caa6e9ff8
6f72dc7db7808a26d8c1321e4c457baa
0ad49f606d7ad486e0390e10a41294a5
396582f80bbd920ce9047bb6bc1d26f0
88a4d2ecac10cde6bfa072c27d124944
0ad3a270a99d8e102c694bcf8472a386
ef927054556b545c5ae783fa71e6cc4c
53c92a583e82cc0837bfe3f4ed1d2928
15a467bc14dee4ec089255b2c39d63c7
c15e669bff902b326a471483b9977d82
29ad489dca54ad34bf03f1153bd1a9fe
a10b19b13373741509f16aa25af5d3c3
5e16b783d5e7931fe4ad2370661fcff6
4fee8001df923e29e0b0283d372e52b9
ead6b0de692a9f6464b0e856b6d7cc8c
c2aa4479eb1b5841dfb61ab5835172e2
e7d1a0b53f332e37754ba452c99b8cdc
07a0b38d88ff6d827c28e148e63fa7bb
cf4ceed9567aa384ad9fbf12459123c9
e292ad0ca1ac02c3f0cb77aa9baba957
934b111e61d945f5177fe2f080eff64c
42349f6133e725110612db5a2ccdd70a
47d53b4ecf0cb98c3acb11d295356558
5d771ef04f78f594ac211607881f94c5
61c8381e397f8a8210e0f757e58d0978
70abe0086f74ec0bcd2a4d149fcb2956
b6ad3d500fa20bca91fc618bee15783a
7c4f68ab0b6e05f84e85d4c3d9e4ad78
e58ea6b7e7af3b19264cbe7ba85bfd2a
1b31cdb34fccdf9061cfa770a1f74ed8
02b0badecff3e7f12a2e11dc59071f59
1e21151ac5e234c1f964c5dc8c63bf42
c991aefa3bb430d60485d748e3f80beb
f5d68f0838c63d1affd7950875b95a12
51c1e0bcdd8c20705574683ecf08892f
587db2d46ae38dabc7b9cdc21ed74e75
8079e268876386b477ef3eeddb18b0e5
bb1b36f20d8925ba5db4048ec48d0769
fc49831b2947d6b84f8511ce3b01b47e
2939fbbb7b2098298ba0fbca2a0cce13
0a44ce30de025be0d71f149a911bcad0
985f346afe4a3898256c59989c5e6699
954bb562268faee69439c4fd847ddfd0
188916ea7ce19bbebb660a5663a3a400
98982d0d58857412108699af0e4fb3d3
74275731dbd63252ab08487b1be43add
00e4603d1c72da65a5d4602988784b0b
7831fed23f8d241029a4c09697cfa28c
c87a252b3de23941270a4fefe28206c6
ad750249c730f02ccf8ca77751704403
2148c079635f44a061112875ee1c73bb
2da87925491952d494caa5a7c25e2e16
09c35294cedbfeebfb762dd1783f6bb8
edfc42b6b1af093d0eada6e577b83633
3e69219ed211c6a60a35fa900facdd45
230ba3a7e2c6588a21a54ee9c611355a
1659e8fb03aae0b984e5ddd396189ef6
d9514dd041637676400b11b1b5e67f79
7e5af2bd93a4101bb16bee8b3902b5c9
be4d9981f935f3f5bf5e57c1cf2f3e7f
af716db384d0ae765a96488065298ebd
b5b4626fb399618c3ee7cc11a1fa0816
f50e857107cabf9067ff451c255a0e2d
05a0bb774ecb41f91b56384ce8cb073e
e33730b7b52707cd10ce0ec2c551a1cc
ebf36cf7e40ccd380c0ee1c1cf9988a5
db7644c34f91e1508662a9c44e16f100
e210be23985cfce19852bae75feb75aa
14b79bd7108abfd6afb5ef5017982009
0d3cf3eab5ebc1c6570fb250b304d4d0
6e5ba7220ebdf80e5cbc94b6d0bebd6d
8936c48a33002c576a56e9a429435ecd
80a093a4fd9c7c8e333fa460a37ec400
7348872fcd1e26021b3d2a05795a031a
927fb16ddd81de929293e1d5041199d6
ea42f724b66f7cbe8ccace15908d68ff
785a6afe9b9bd2805e5ba1047dd62bd6
fa0c9d7e5b5e890310fd171bc8c482ae
7666a854348b5ebecb691cf64818e6dd
366f66a95d7cccfe8286592cfd2a16a2
b2ac28cd0992cba16d38a016b0be403a
d14c1ed8f68bc43a8f3dae1bbc249804
087df91bb8fc91957978b91bbdf1d22f
616ac43cd45e8869f5bcb8b35e30393f
cc554ade31ae65ac80050988f301c72d
d2c36b33d7d9afcfefe7e06e7bc4726f
27773000b3f3a27293c4378b28f65925
e0ec41976b0657743cbe39688cbde38a
cb40c95beed9b4d1fa1031e2c99e279b
4145cc553530fb6e47535eebb3a277d1
b733f704e1b505500d0c23033407bfda
04cfa0104365aa46ac9f333c23d44903
44304ccb4cc47b89cb291a4375a13977
39d4316bb252d64b568d752f4063607c
f46ceacdb279d0917b1943ff70987df9
9f0d85fb93c597b4fe450a0ef1b86fe4
b13140191f7afca64cd14f9711f81a61
15099739e2669f41aee2c9428a791d41
a4b6268df7699870024ad1a103584705
5bb584f00c75298f83e5e4c377b59b4e
8ec8c8b25668ac9accb1cfa4d1339088
3064b9aef8f9682f8cf7da2a2853f69e
9b9a3801e5435fc2dd8631d16c2c1c1b
ff4a473a777f0988e6978bb94e18948c
919ba2268f8d7bbebe71383ffa10f4c2
809d452facee11d040a82451ad5addd6
31e0ed415a0606de6705be7ade7d65e4
a7681072e591240e5543cdb0d0ab7e85
1c177fbcc2c0e1d09c47619c043c9c22
83d0a6d8897008cb873ad3eb14ff8031
b5f09d6a6f043cb68f57822ba885b4cd
7a81dee490e81b0bd8d0d43b0bc5f565
9d4cc70b262d7c07053fd392f366b3b2
2edd053e89a8bb25b68a958be578d270
ed785260ec7e43b3fc1c912b965df2ca
55d0e4f502f47e7d0e0f5ee0d8b9c514
4e3420ab532f2243b83ed16e16742953
0550bafe708ce6b58190dcf54225de12
0d4b65d0c96db1f94c193503d65b53b4
0c14ba5cad74f10394316596e29fdc63
6b08e8c12ea1ed8fb87cf76308fbe16f
0c750060d3d63d6008fd2f4232ca70b6
0315a14a00b195a1bc7145b59db5eb03
bca96d44b7f37c33691117e126e282ec
1b03029d23a930d4f35bdc6447732713
015b4988db7f2532b7b4d324dfccd045
4b5be115b2c549e2b920869537a26882
4ecf1a12b527d810a15c1cb0b04b5833
c2166b9ea950e52a1c3848377609553a
38522662eba1f0d1557949c05ec9077e
ef24fce7417340d1964e229a4be7db66
3c97b0fc42c51df7ee695475e40669aa
98e6969472eddf2f13ffff0df320f997
1b7f0f25b742fee3b70fed24bd2e66e5
891723b733f3ed50ca25116b9a889f14
03142494032314242654e58b5483a003
2e9c880fb42513c47d1594d55f3203b1
ccf8cea99a442c0cfd17746007a65e8a
df6670aacbea07a074488ef814456a26
0b7a1faabb316219fe23556b0ab50542
46b3f9681e6e58d61ffce493003af88e
5bb821965daec44963b9c4a136509ccb
99cfc8b73dcbc05dc0f021c7a8ecc68f
5aa70df674914db91da3413be3dab655
aef315dee74489d72bfd410e741d6790
fdb5bd02feea3d3eeed30ceae65e3a92
2d9e0d5e19d60475719065c84315e1af
19d0da6d4fcaf5b076f54b7251943ab5
b2a7e8d560b7a64aa05ff99f83b9bab4
4fd9bfd1be471800051907c02b9ef0bd
8a62b9ded9b6e4426451bcdccdc390ba
f7266f57bcdbb35aafaf5a0baaf908dd
bf3b746a51015a03e07ddbfd56ff1719
a2c128108543d54095d804cadcbc08c1
b01b5c96f91e064242195fafdc50a8db
6a328dc395f69b02963f868b83ade42e
c885a1350816fc18076c802cef2688de
c5fa807e586f1b8efd6fece7d37044a9
164f1537d441a30c0b093cb93e085fd2
4d09fde571fa63a187aa3e64c9d06bf3
3f04054d3b798fd21748bff3ba6ef06c
53ca7b7e32cbb7b315a2eb57aec2110d
92b6dbd0fb4467dd9dbdd33acf82e8fc
279cb6a3ffbe63219dad876c829618bc
1d301ba0f193a65f0ca1b5ca5eba2747
c205203f35e8d0dbf054a35432207c90
97455d7e6679055900b07094273bd2d6
7a065792d8aa046285c18f959711f27f
507056946b609e74685e731cfba2ae0f
649781118ddd8fee129402e3494f96a8
e9ed5203acfa0e9fdc18df32b3ca7e59
dcb9da826c780d722df3f853369e846f
1285b4317ff1b1899b7af28c9db0b2f3
b658da96088e069f6d1c8841ad5b4477
b4cdd81bc77c09d16211d3ffbbd97987
e6fd788ca94dbe9e5aaed59892c501a5
7c8e380c05591be19e2b5398d426930c
1bb95a1cf98eb8deceb76d7e1dc46764
b865ad2075b343e2758336286c80b082
3dc0d295ea8de10532f2bdbe0eca0d57
a9a4b09e09fa2157de8618fbb15a63d6
c87f0bf7ca6118d50a04e2c4409b14ba
9c7714a293e15816e49520d8b99cdf69
e2183d6406f07e65a7d3a7b577e57827
895a5b9ce57f1fd317f01a3c798cbf55
75bcb5b398b15f50f76d35be2764c52f
b2e2bf3d2fe45640f446a94921ede434
ade0e9ba1761bceaacb80cdc6e93441c
e1cd3a0585a2f0812dbeffc428a9e282
3877bf1a243c64555aa89555cc05c74d
605b1191af49bea8e235550954509537
9fd0ec7d6e7b1eb8c264889a4eec47b5
0147292848d3e328dd824adc8cae0aca
2f0b2170d351bdb25b2fd892976e5c1f
912e67bced30545044b699d73ac7a434
e6d4afb6f919f2d940e82a92e9662598
faf8c67d705abb8bdd0cecb727b2d018
cb04d43b358412d74b6186ecc8ed7ae5
cbb13e300d01e55badd2daf4a546ed13
1290a1bc217b062d816f6f4b7d9c1712
1ad2133f23e06b8eb2951dfcd267003a
c7e27ef8ebf26f918b0782065d8d3b8d
2a593b48668ce4f212b9907286219050
b8942b84f0cdc788478a0ff51c45ce3c
308a33e74f367ffd29df42416d65c8d1
736200a93383e01501439e8b51049119
a637fcb6ef39693191e2046e30c77d68
dcb13e37ef8d970951d08b818562480c
49ef55d9a3f7c3b960b38b8fe5395639
688e23eb1c79d79c317d6dc6c30e59cd
1794b3f2ff93b3a974af4e884ad6d136
29be3450bf753992e1b20edce7fb5180
42df4f8adf1ab0942bb8667406dcc1a9
281c5f9bb795078a13de89db10bfebb2
f049da44952ad5563d9e064da0e7a61f
6ea43a18a982011b0e079dc953b9a542
f0ddf60afc1542225d72184cb0f68582
630699b689de7447f33923bf1259ea15
0d4e80ac648922e7729c2a102afe6a81
dc7420584503f783d5c971610aaa05c2
59cd3c40aff5dc10da986d7dc2e14837
b6c83d72378f7781414096239087f2af
7a1aa59665c781db7739b71b1ed9946f
370434dbd974a6360a29b83c145b6bf5
a61a74e313ea7d2b0bfbe077604de24d
56b59be22fd55647f0ae8104a96ce3bc
c74b7789eff9d0163cc965968c61c45b
8b617acc30c55fc4f7fc9ae76215bb2c
929303aea8c56c68b61d19188de05b6c
bdc882d07a8fbe0400e69c654461d615
5ff4ceea741f4b71af9617b3d9a67268
dd73cf01e1fdc44dc1cae0c619ec1e9e
4345a8420a8877cf40adae724bb80d48
932f6197da3083d8d81393163944e1db
da4e50af0d545cf62b16f2f5a6290c89
136d24b1a7cc82fa7d9a2c1ebe5da0f1
cb6b2b69f91bddcd1025b00be7f1fbfa
3c65d35f5d10631a885e302ae16c760a
412b48f389de3660cfb71299a985da72
5a77fdab9948bc85c848b9edc86a1f89
e1f2820fe127579b7db55f55c3ef0f3d
1f4b1f2a8dfb367b2e68bf26408568e2
7fbb5b8de15051f32afd182983c7c47b
b50c7aa7a5c5f3cbfc216100cae8dcdc
f1b2215dbc11ed7f55dffca725f00b3c
e9ee3cc96ce71a70fa3edb9b9609572e
c2c67bbdfed429b1e718979d3b3af732
4a706d823acce11cfbba1bf5b144a371
2411d608b23f6495ce1e024c74e058c1
31edea3665036f6409252714c83d8806
236278ca8a8991724bedc33a29a293d8
b20d8a39b853b4b7bf2a8d90c55a6041
c3bd13065e8c8813ed6807b086bdb688
af703c987b001513926af1b960303a54
72cf624fca5745bf19a4f2ecf6e9fa3e
96f9c9ad79a97869e9705d64a16dbad7
68b3f0a0fe530844bc96b57c65b7790d
49c89b47c3a21d045d6f781278e8a7ca
2dd9316c0b0a39e84515285abbf897ec
591bc32ca85afe16e772a6985a705fd6
7b49d52144ac83e9665b837bf64c240b
ae3c1508d8631a8dae54fa9e3b87e6e8
64f8217248f1dc7a26d281805d023ddf
9dec95d01fc3f768ced1fc27f5a5cbf6
3495c54b2295288620dcf5ff4dbf8856
9c39d82b0649227649101ae5fa586f8d
e786f03f77cf4ad89bba2a14cc5985fb
cde2e8cfa65aee2038048ee3c871208a
360fa22a9c4ab710f628ab8a9c8564a2
54c92259f60e44dd44301b373aba9140
54eca690dbd7949cc91c9d1e598fbc00
f27a4969dabe57fa6404b5867932e1b9
9fb279a3a75a5ee59e12b50b738c26b6
c73fe62d5890e6c38f536c2b73abf444
bfae7cb7c82af7c0bd47e38b04f47637
dcb83282d7e602cf0ed29f5b1c201d24
490494c1720fe3c1d15624841fc306d6
f3ea8cc2e6bc5d78344c9aff07b462b4
9afd27138bd8b0e2f11befd40165450a
6d166206e57b11f23c4e8726a1782e3e
38a2fd2eca33f88793b7113b5808db47
c850e1742550157ce937fc268e723a35
9b0b6eb843aa50e0142a36cb043eb6e4
80e592ea08d7b983f485d8946a8cd4ce
83a2fd765a4e689da36e760485549311
db40961f4aa5f62080d7a5b4c9295964
086433350bf2ef51957c26c8b90ee56f
bd3056ab8a748612d92b1bbade458dc9
953e024a0746340b08fb82876369902b
92e402497fe977c3cc8a6787f9ac79b1
00fc6704bc3d4f7f8e5c8b142fef7154
3356837ace3ec6e9fe9257a33ba52ac6
b8220511b6a225c22dba97e04c963c14
590ef4dc150d8ac5a6cd28e73e301ac4
ee41c4a67dbb9abbc1bde7eb105187fe
ccf4befa86cd805c5b78b1f19e3d84b4
c6eac098186497983c600022b6c15f88
88e852b4cf2094d52826190d68d85814
efd71d1c4ddc7f9803b44661151c98dc
b6628ea38dc7ec407948443846eb3ea6
fa9e4364f93bf27c1b2a7a7c1dbb3569
e0e2e067212fccc85dafe3ccc802b3ad
d7b9c6d71f8e3035ff466a3a7318ce8d
b3999d6a79eb0381511e1daa55a35cec
89e0c0f839d0b1052173e7b5c9f7b49f
5a6081120bd80b449957b3281bf9efba
1229e82ec0fc582aee967e380038426e
3c58b46e671fdae4c70ec53af0e82c5b
1f846f701f72d4b0ea436f03a8ac7fa3
8756538f8da4c718b9f24351c1e25643
3549927177e32ac6570ddc0aaa4d7db8
e5ade96822113ae9a35456d4ad24cd6e
709f32bf2844db36e886580f2383ea97
9ac2ab79812a144fd2689592a92724d2
f097e0facd6ff686774cb3b52d47e8ca
8a8390c5feb91019b1269159da10fd9b
2ec1237a26db7646744e71afda238d3f
e8b967798075f2a0fb6213c121a33279
160a00d25e95a3c9e6df8544e82cb4a6
cee8f577274d08f933939c39fe4bde9c
0441f7141c3d5089e7cab65ae5f61e62
a91acac5f12f14378920160db81b2f6b
175d9129d385d0893d89d47d16819fcb
bd634f5bf05496e607c6429559a55d03
ea34429d3c1758fd2ec57af4e1eb9254
937455869e7607c2a4c3fa098177ea5c
b1bfb2eb02d5013647bdbcd92fcb3659
64965307b22cdbeacd9aff9ed5d1c40e
77faded8450d7d200899da08b3ee4051
f5d39a228d20ca6184aec74cb40a4cc5
6b6f71c075e4b54214d70be26507b81c
0ff5cbea9177b64201977afe27a80a2e
f0cef5b947093c15340e088c36adf18e
9783f8a333c371952ec9f94b84b26f97
b3074f1cc49f5dbf17ea89d769116276
9a6f91f602b4c9aa43d5c0523e622caf
c955d57414fd273f963348b83945d5b1
f232e5c3818a40b1b62c623d6c773cc7
cdae0f3a3082cf952bbe92b761826c7b
04015d740d6fd2cd6ff392b09d26c1a6
ca11daf5157c4c374e2c6c7129d10811
be912086ad93022c7f798a0545c14c71
bfa3f12755e7c749e604f755f79eb6e4
12aa59addc0c275f72180f04253557d1
32e3db14c82dafba258255d925c682bc
d5de7b074af109c9fbaaa5e4538d1b8d
289e00632ce4927f672d610ba80453ae
8e6adb8d4d6ef2c17a9ac488205c135e
00a7d7ca58cbc7adec623c20b6461acc
375b89d74bfab4265d2823778eded9cd
dbf02196746f7e807af8bd0bd670aeaa
9f179db4e47c5edf13795b6246ac6719
4be719198bfc6d0a34d9c6c6be9e93c0
a3e116acdfbf164448c147be32676a37
2ddf8ab1b3f7198756471255b9227e3c
711d72a0f3d18c5b7043d7faa43a8ab0
edf5a2bac6d5c4f782a94aa2502898a5
741b4bc2c379b45a1aafcf36b19cb156
fb484cf0ff5e34c2df62fa193e7e68ca
f2a169e2f149a7100abe5112fbe08bfd
8382d0658822b9eeeb54d3791b5309a1
3ae79eee653b4ffa55707a4f0b46ca77
88d24fd1748261cb69eb279562eb4526
1c120d10b8c3d0903bc306de51321385
74ee9de96e831615f8d90650d4eb0133
874d1bf5f86d5cdd9598834cfd678f70
7823d2050b308eed6b5807e5d2603435
3c17579b38aed550c9933a52f8635673
16327d02c0ff45c41be95e5ea2bc95fb
c8c85290c12cb62966ed57a40cffff1c
88fc4671f5fe8903436bc33ae80b5bb3
eb02780c2297145c02f4684952572790
8e6aab60240a34014324625ce592c236
fbba7f547fe65d435e4b1e0a12b124b9
f1e1eb3d463716a0ed9d575a7f24ecc4
570df5e4689dabb3ba020311844ae9b9
27838419e3a24957c4d07f0db07c280d
8614e189e1e1e818e4cfd1d8529b976c
9c1a6a4dd3041503840105ac619c4969
d574bd74642fb74731acd4682a23a95f
c121179939c8f64d2f17520feda9af50
8e28c6f80ce6cd3d38f0029e88dfc45f
a06493cdbe8a6a0174dafaf1086415f8
0015bc01407963e734544547098a06b1
3e3f400d8b59bdf6931bcff11d69d501
f8fa1ef7bad95a0b20acb3494ce6ee67
3b8d2670fdb07801ea62d1724e11cbba
cb3ec44f2b0451d77f15f49d8f620298
b38791be2dc0e321ff1a5e8e9a2a0024
4c8916b51cc7ab14eac77620d0f0dcdb
4bece2e0318e2629b11ce8982261b848
91751305362018ec8eca1c15951348f7
dd747ea8556227dc26e757bf8b60c00b
a310ce428e122fa12e3701ed94841e9a
c361822a9482add8dad25caf4a18e1fd
670337828a480c2c807d0adb3d022550
0b01e61c1cc290247d69883a887584da
5a77c4e4868cdcdf2ceebb86eada9c6f
7fd67c62cb80cf05e52caf7aef1685f8
5e4a0ca49543311fafcb46cbcee25721
9fec468d83dc2b9235df1117635955b2
a2abcc1b342700dc435db4a7abea4984
44f292a313ef731b923edee458427cc1
fc41ab1746843f62bf029b545c685868
8b36076e12a246b13e3775ea170365ef
d66f5991a434363118dbb1c8232248d8
c94957683e664c689aba8b540908b9e6
545adaa10f86e909c4fe782767f9fc86
8376ac340043ecff08d67d479d552efc
0af38cc90e9754befdb6e63109038b6d
1ddbc51c108589d0da48779539a05609
0a04bbc47179665d2dce673b60f827f0
2dd77b26e43fb4300b8b4f309249e826
0f9ea35a84699284342b17cdacf3a67c
e5cf80a1c3a0e1f09958641f9c4bea27
569619ca9686a738acdd1d572affba4e
89aebabbdfebdc4e7918bd495223aee1
a9d93aaae834c52d75308c1f45b57d4b
4b7e326dfdccdc834b9c1d4dd07f962a
6eb3f6eaeb2ea5550c72a3120362f1d7
8a3327af811b66ad15bf852c4f4c1082
ce81fcee19cd7b26e01294741e480b5f
1bc5324dbb20a00f4b0218dca0ebbe76
c690b8c6a244b0c43cc72749f5edc6a4
80e05f707ba841573e2945e08d5a89a2
c0398fe9173d683856c25fea64dfa807
c7321ed8d86fa3dd560637501ab0e693
0d4ec704c096794d3a40b48ffa7fd759
b3d9efed9ddd2cc61291495f9e8a88d6
d070f43a4b2bf7d26509a223a5d86954
f2286885796663aff3da73fb46527904
922be4df4c4dae02b79591d79fe5934b
57e0ba1346115403addcb6de01b07c0e
b9720259bfd4b29553158c84253ece6d
b2ec2682824f1d8254d3d8db508a17be
625fda7c3df6a5fc28a34f7088b81113
c9f29be46280f4ff693e54ff95f488a2
d9bc14c0e3aa17ea8b6bd55f0395c756
7e411ed84308abd6916533a0abbefc44
01370f14ca54205db0b4728821a07fb9
50e472e5d44507d8fb8d28648b907f89
92973f8c92912afea51bd0f04eb23a4d
524310b6b3ed1de30d637ce99370fe71
d0ba84eac9ecae21ed274bfd4854135b
68317ec9b8b3223f5ac82ffc0ba4db13
80a480376e7d8ddf4546342bba2efd75
8ba4ee4fd1d3ec82739af30417592961
340e78ca95fd5731800d047b008b64aa
f0c3127901d98178e2e3267454a5c5ed
214fc3344e95b26c00688ceb288ea4b5
def8d0a6f5a766dd3c16a4c68c6d7e42
fc474c2616a3f9f98b259cfe067f711f
9e502332d032ad32fd1eaf4205636458
9ceadc4cbdd8d8b2678a2fbd9e59bbad
d634dcf815038f9c6e45211eb4e075f8
d6244636b26dfe188ec0b8ae6935cbf4
df853c1e52599fb26057a7c1864e092d
6813c86bd2f8f5cad43295419f34037c
59e385e1371b0a3d9896969dd2a41c41
ddad2cd1eeb96d67c872d8668f0fa098
5ef133719fb70184669cf902ec1fa55e
013b9629db6c40cb85e5801863680da3
46d8974af3f504bba1528920503e8211
0149f708640e794435f752baa2633266
dc44ceb3a57f5f28a29f225ea65ef397
214ff85bf682393aa0a73144c18239fb
fef3c933891d88fd6303ce3dc7d51303
2c028f8306cd3d220988fd968605431c
863792e1b297aeeee4fe55eb92e96e24
99d7905e3b0d47735562ad3ce65cec3a
b0e085babe32d43757e0bb25ba899278
a3036fcd7ba63cd7d53d97a3b818ad81
7b18a095274c6ab44d52c87a54e46131
88f91fb2c602d652d79a2a22eee61b32
caf43a21bd83c4f46340f8d1d0322ccf
9995980fd99e14f53ac898539d9bc619
29198119ce3084ffd00a43cfe295f98b
95185e8975cbec74f987331d8d1a53ab
994148a85e06d02ea3a688de35ea8bb8
cbdb6cf66d67eb90ffe911c9f0a99fdd
f98b844929b9615630b53572b575cf9d
1eb1eecf42e5fb349e52d1024357206f
48123481edc24e73d102d06c2569fedd
74d68e4dfc5d6b97555cdf77cf69a2e3
d256072ab5094809859950de258ac13b
006df06f806eb9d99ce1a8b005e9b1a6
2a906dd756306962cfbd4465acd09388
cee7d5650e635ce817ec3195c2349738
795380fe4a17330a9c2cf77b409f262f
23c4143cc41d18c1577cafbd1c503327
4d4fcf88277526b17fcb2ce32cef2049
50777acac3300632bff800d08d17f472
512e107fa3a5ccd72d25094aeebf3d9f
77d843ef5988885a130ee1aae4a744b8
61fb135717a384f7895d679fdd822ad7
991de5cfa55a536c6eb3e3e2ffa0f3ea
abad8cd98162f6367c1342b381de6bb2
12f49f19d02e6474b79fe8353b7213dd
997e3b597d3be90ef228e4d9d274e5c6
27477089da117446410ed5a585f9aefb
963d0e51e195d9b6a99a03a43ddeb65a
64d9f42af866cdd0985fa4c8f8f73eb4
a64ad2595e14b4a4ade87c90c0299f89
e655a2f7a6e6fd08474c50094b25b3c4
204e49c789b5c5cfa904c664c286d2aa
3c839c911a58c77529672847228e640b
4fc10c376c401ae295b19c52447c6e93
729545e5bee4e058fd6b0fd1a8260906
651758eda0d50d91b8d22e33fb376701
9d18cb0fedbd5be40b13fa1d67fdd655
a180c497346821aa8e4f5114fdb506b1
84269926a48d0592edb92f7d1fee1b05
94a5b8b1c2f9c5fbab4c27b4856f3f14
c9b4f4a419e526db377ed3781e688c84
b1b35f66f9c82f5fb8fc904ba7191827
ebcf65c26815e99bc9b9a30d8d04efb4
0c801dded4b593cdb6aa7105b89fa3ff
4d98b75ee67921b60f20db5abd55da59
6ae882747c98652f4b11592af818e9f0
8cf14291b5e576bb0105b6d8f29cfb07
a864e7858f14d98b734a3c293d699aca
2908e84102831ff64b4049c7532b5399
77fc7e132231579b27c0cc092f4eb496
52ed92e76b0dbb750b5bbbfdde4d52df
8e72984364a4bd27e3af071ceb4715e2
c53fbbe53db01700f1768b674b4c5719
4714e93d8c2078fb4b35c257d4b8e20a
07efb5515f3cb91c41eb409a97fc15a9
df3456b5d0d069af974855dbbc81c09d
476f06f840b8dbd444c465c2c4dac4dc
fd873174492df47f643c89815ef93e10
8664e1ae03fd07592a14d965ee6c4353
038aedcf3396118ec62a4d22982507ee
c53459ff9f759ba7a64ab3f5a66b6d25
648108e32791af8ffe03673bb3c1b5c5
b2259e3cd696a39095381e0b4b582b4f
f2b195beeb83603676740072fef1b07a
24f2bad2804a416bf3d854adbef76764
a2c2e540488ec7a4394184c840c10c6b
d8a2b65123855cd69143130b7f9b713b
406de882aaf11f8dff7e892700db3fb5
c2f5e0ddf2164bfe8d2ada6f29cce665
39504e4ae6df377089903a6a0007b9b3
9be580acd0593aba1bfd9c1305250e58
c6e8f0323c593b7632abc61b562570ab
65bae8a84a03f8206d69da7e423a5479
5664e2c6294b681f6dacc14aac9382c7
2abca989a09eb8173984f503898e5f5e
7d10f7a0eabfaa0a3fc2ac30f8c40b63
1f18426635adf9b7868a5bd3bf25b529
65844f5b17f719bba67f04dd046ce1e1
e60c4dcbb66d0b574c56c9a24ca702f5
700378a41efca3123cb743221b04f120
6c69bc14630e66b6b65c95eeba59d908
63cf9d08ed9dcdad8f3e1bc0fa469ba0
27aabe68bb6893928757bae5ba2a3e0a
87556fcdf71b2dfeeb8f1bb57e4a84e1
95351000cfc3633d4af44eef1b808981
11ab830dbfdbb50fd5fbe7eda55a7803
ff11ed62955dbb9f3e6f6e5e65c7b644
eb0bf9725fa971bb0bc27bf7040fe8a8
bf5c5d6af2f1fa5834add69928559377
f288684022f77ebe3cf225f724f05fc6
96fbb958f160d995766f07ba64e45c86
5f57de974b6129c99bb89e6aa2774d42
b1db266026e509fd62dac0703cf546a6
56b1ade858db8a7fe55893815bd717bf
4d2f25bd57e06b465c13c0f3868f7024
7118153dede5e6912a4675656f848488
87429b099f2f0103e0bd84cd999ab768
436cd9ec5d2bbdcd333dc2f4ff0cd127
c28ed19e478d875672cfc190dc7ff449
71e3afbf2917a4d0d9f3bb64f97f8706
a84ddfa31fb6f68ce136f4b22b29dd1c
351d21b8ebe756bb9d75a959c8378a69
0b5643b31ea5fedab934469103f74c93
ef30ad8959b83fcea685ae8d643f9fb7
ced7a9d349efc31c8edbbd950a176309
69c20dc35156c407b4f588671b6a3824
ec1d90598518bd8a7adfba1d38067f53
06d836944c7b0c5302a28a3d55032833
2ae4daf1eb668fd9a286c79c91181279
7fdc07fd01d3a000075b2e9f38c72a1b
c4d7ec9380fa489cd6a62a0a1eef0ac0
04f3a6147b91fbd8a15481754da13429
73291729534d520c4a66fdcf3b87783e
51c71a3a53ba1165ca7f8a60525d8bc7
4218af74641eb6d17189f2d68c085b3a
bff7abfa205a4ec53a6e26bd5b44cade
e7649c7e48dd3c671b96ca6fba1732ea
85a560ef6a77c4e5ff0d6e9f4a763ba1
0422098ceee0d103c25c0c02c992e4c6
319650cc7c3cf69ea9e116cf03da2bdb
04f3cb055578a28254be08dc13744904
0c36441dccbc82070ab52d1ba63a3c83
d1061bf4ff5b526d996c9208e9fb1910
787efcf02961737309b94e13bd9b657c
5fea9b1a3794f3f33e51ce8706d99359
6c9bfad3fca96af9d26e72c319d89831
397ff0eb164c2781a704d3a9fd38a104
ed8fa6f881214f93c324ad483048edd6
5faaecca7f4cbc68178bb1eccc3feab0
acc0bc783029b586c8ca700539347582
efb0d2e0c9fcb881d386f7b1c40c6e61
7b6037da9e4b9542564dcdcb6f55ae17
5e947fd1a74942b292d77ee4963df800
f5b5ac8b4bb34bf620e0fa01d39d32c9
ef74eea89dc14441b0f77bb13250d35c
d3ed116a1d8078074ce05e5ead533bab
efad84478f092a00c9797f8b2bbd4fa0
c63041eaa8b8a14cbcab5b782c63beec
252dcc3603ebffa006545785c717a20b
8cb62bc6b56106317c92f3af72b8317d
667857bc1cc590217f31362426c419fa
3850f89aa5e8b187d21df8c6d77ed918
09afa7314ce7dfa2dbe99aa632a7417c
83b69e553172d742bb7f7a062a33d8ba
691b27c5d553b162e88f5eea7d5408c6
0026b6c0cd9bcc3e915cff579e23bcbb
8e9507c52964ddacddb3924d32ab3c10
ce545c9dc3bf2e67c17d1d28818933d4
2600a09ae2d0076942f058b261ed64dd
4362d14049f6dcb8cf38884ce8c020f7
d27b95af0959038bbc00cbc2db8027bb
207a34cd0954895ce6ff5237e8757e0d
e5be38964a71b399467e45a708a00735
4d784aa6201602b4aadf2cfeffd51def
1da1b3a1b606b7a3012dd693a7d23614
779801c0d5e8a6b7d246809bbfb7003f
e7a9816d82f2e250451ce6d941c14731
32ea1a149eb79cf1a149bd8b6da1e5d5
e912fc09ca7a21172aa7e4fbc3f27b45
c3d3d0a6c04ca02d6dc6a4d11f5bfc26
1965fae722075a833357612eadf783d4
113bbf345a611b6259c9abd1db15417f
69f7cd6a2f0887c3a1553ecef9d2159f
c1dbbd7698ba0a5c396431e4be7c04ca
05c5340ff31e28dd3efd67c52e457e50
a896c09e19609d07d9275b18cdfd870a
09f398d64a606540e4eb1dc501c8c2f8
fc05a4b908ecca350444202c0dd1876c
107f1170b6c3f62ba34204a2aa114499
6758f31beddb9bc23f2eb4894d9f3d23
fc7e950438fc678be9d5befaf9ad00b7
01911fbbe27b34a32d50f160e10610c6
9970038a682f2979ed09bbef5d0dcb63
5c0b3b92d562b86abfbcd420c7c4b34b
3e9464f3bf10368454b12552ee7094f9
c080938f9a38c29afe5a6e3ebe0ae0e0
8dc340e828092d81cc9b828d0dec42ab
fbed56bc07e766fa7af0699ec9fd1715
78fe18bbeb8f46e609f84dbcf564d1e0
f81aa612e4ea4471ba258349473dcaed
569c4755eb74159e43f6ee2deb69cd45
15b2dc2cbc041b4e9c2a3eb5bd1c9c84
3a50da5df6a6bce2198cbdd9e9d9d8ea
4e68637b86bf3acbe1bcc14732c84dfc
905878fefd484fbb087e36546768c529
253afbdd050067718320a777c36ee7d5
53c9ac7a581b4267d1ca732cd1d8ffcb
30389afabb8269a13b24bc368b1f472b
e659753417c54f0f316eea84de24b559
f1e59cd6c7b6a22bd5dd0bcaac639844
321d8b5c2b00b540f0fbe01995d7c9a9
ea245bbde1136a87c6c7344f3c4f299c
4e3986342b077b5f787b590efcceff59
a3694cdb66ff209688d2f8672c498a8a
2ec5d6141072c7f9f4926f460e53cba0
835bc6847411bbc35a5b4c3d73c330ed
